{
  "results": [
    {
      "command": "make ajc_run",
      "mean": 2.77841044197,
      "stddev": 0.06983402696718576,
      "median": 2.77879732297,
      "user": 5.738024014999999,
      "system": 0.31590167499999994,
      "min": 2.69572225447,
      "max": 2.88394302247,
      "times": [
        2.88394302247,
        2.80897919947,
        2.69572225447,
        2.70201852647,
        2.71471568747,
        2.86142616447,
        2.84382520547,
        2.77675138347,
        2.78084326247,
        2.71587971347
      ]
    },
    {
      "command": "make aj_run",
      "mean": 1.4478683920699997,
      "stddev": 0.029625335982547248,
      "median": 1.45949590847,
      "user": 2.730257615,
      "system": 0.19611527499999998,
      "min": 1.40029527047,
      "max": 1.49394799047,
      "times": [
        1.49394799047,
        1.46390276447,
        1.42239293547,
        1.46481166747,
        1.41922064247,
        1.45508905247,
        1.46965706647,
        1.40029527047,
        1.46649348147,
        1.42287304947
      ]
    },
    {
      "command": "make bism_dsl",
      "mean": 0.9763266312699999,
      "stddev": 0.022211538392618583,
      "median": 0.9720660424700001,
      "user": 1.3752257149999996,
      "system": 0.111878275,
      "min": 0.95405460847,
      "max": 1.02457236147,
      "times": [
        1.02457236147,
        0.95792760847,
        0.95405460847,
        0.97181382047,
        0.97564634747,
        1.00370407347,
        0.97184711647,
        0.95462443947,
        0.97679096847,
        0.97228496847
      ]
    },
    {
      "command": "make bism_api",
      "mean": 0.85410198497,
      "stddev": 0.009389458150333211,
      "median": 0.85373606097,
      "user": 1.068193015,
      "system": 0.095708975,
      "min": 0.83919802547,
      "max": 0.86662711547,
      "times": [
        0.86662711547,
        0.85148348747,
        0.84387533147,
        0.8491751214700001,
        0.83919802547,
        0.84669313847,
        0.8559886344700001,
        0.8627450264700001,
        0.86208200347,
        0.8631519654700001
      ]
    }
  ]
}
